[
  {
    "name": "pen",
    "price": "2$",
    "path": "/products/products-photo/black-pen.png",
    "article": 2321,
    "color": "black"
  },
  {
    "name": "ruler",
    "price": "3$",
    "path": "/products/products-photo/red-ruler.png",
    "article": 2211,
    "color": "red"
  },
  {
    "name": "rubber",
    "price": "4$",
    "path": "/products/products-photo/white-rubber.png",
    "article": 1221,
    "color": "white"
  },
  {
    "name": "pencil",
    "price": "1$",
    "path": "/products/products-photo/yellow-pencil.png",
    "article": 2451,
    "color": "yellow"
  },
  {
    "name": "pencil case",
    "price": "5$",
    "path": "/products/products-photo/green-pencil-case.png",
    "article": 7621,
    "color": "green"
  },
  {
    "name": "scissors",
    "price": "3$",
    "path": "/products/products-photo/blue-scissors.png",
    "article": 9821,
    "color": "blue"
  },
  {
    "name": "backpack",
    "price": "10$",
    "path": "/products/products-photo/white-backpack.png",
    "article": 4821,
    "color": "white"
  },
  {
    "name": "notebook",
    "price": "1$",
    "path": "/products/products-photo/green-notebook.png",
    "article": 3421,
    "color": "green"
  },
  {
    "name": "pencil sharpener",
    "price": "4$",
    "path": "/products/products-photo/blue-pencil-sharpener.png",
    "article": 2342,
    "color": "blue"
  },
  {
    "name": "marker",
    "price": "5$",
    "path": "/products/products-photo/marker.png",
    "article": 1141,
    "color": "black"
  }
]